…
Next, we can begin to take a look at the houses dataset. I found it very interesting that the largest average house sizes per year were in the 1800s. I would like to dive more into this in the future.


``` r
houses %>%
  group_by(`YR BUILT`) %>%
  summarise(Average_Size = mean(`LIVING AREA`, na.rm = TRUE),
            Average_Value = min(`TOTAL VALUE`, na.rm = TRUE),
            Average_Users_Rooms = max(ROOMS, na.rm = TRUE)) %>%
  arrange(desc(Average_Size))
```

```
## # A tibble: 149 × 4
##    `YR BUILT` Average_Size Average_Value Average_Users_Rooms
##         <dbl>        <dbl>         <dbl>               <dbl>
##  1       1881        3653           737.                  11
##  2       1851        3527           705.                   9
##  3       1848        3168           689.                  12
##  4       1884        3039.          418.                  12
##  5       1798        2953           438.                  11
##  6       2010        2952.          534                    9
##  7       1976        2944           398.                   9
##  8       2011        2885.          458.                  10
##  9       1874        2884           714.                  10
## 10       1998        2806           365.                   9
## # ℹ 139 more rows
```
…
lake_summary
```

```
## Simple feature collection with 67 features and 8 fields
## Geometry type: GEOMETRY
## Dimension:     XY
## Bounding box:  xmin: -87.42774 ymin: 25.02625 xmax: -80.03097 ymax: 31.00254
## Geodetic CRS:  WGS 84
## # A tibble: 67 × 9
##    COUNTY     Average_Area total_lakes total_area mean_area median_area max_area
##    <chr>             <dbl>       <int>      <dbl>     <dbl>       <dbl>    <dbl>
##  1 PALM BEACH    70315565.          19     1.34e9 70315565.     239690.   1.30e9
##  2 INDIAN RI…    13515194.           2     2.70e7 13515194.   13515194.   2.70e7
##  3 OSCEOLA        6920741.          56     3.88e8  6920741.     818668.   1.27e8
##  4 GULF           2767325.          11     3.04e7  2767325.      76240.   1.63e7
##  5 HIGHLANDS      2463776.          78     1.92e8  2463776.     277742.   1.07e8
##  6 BAKER          2436310.           3     7.31e6  2436310.       1649.   7.31e6
##  7 CITRUS         2222842.          27     6.00e7  2222842.     155148.   3.26e7
##  8 ALACHUA        2061077.          68     1.40e8  2061077.     175969.   2.95e7
##  9 UNION          2031957.           4     8.13e6  2031957.    2066163.   3.74e6
## 10 MONROE         2026182.          26     5.27e7  2026182.     214442.   1.54e7
## # ℹ 57 more rows
## # ℹ 2 more variables: min_area <dbl>, geometry <MULTIPOLYGON [°]>
```
…
